<?xml version="1.0" encoding="utf-8"?>
<!-- Generator: Adobe Illustrator 18.1.1, SVG Export Plug-In . SVG Version: 6.00 Build 0)  -->
<!DOCTYPE svg PUBLIC "-//W3C//DTD SVG 1.1//EN" "http://www.w3.org/Graphics/SVG/1.1/DTD/svg11.dtd" [
	<!ENTITY ns_extend "http://ns.adobe.com/Extensibility/1.0/">
	<!ENTITY ns_ai "http://ns.adobe.com/AdobeIllustrator/10.0/">
	<!ENTITY ns_graphs "http://ns.adobe.com/Graphs/1.0/">
	<!ENTITY ns_vars "http://ns.adobe.com/Variables/1.0/">
	<!ENTITY ns_imrep "http://ns.adobe.com/ImageReplacement/1.0/">
	<!ENTITY ns_sfw "http://ns.adobe.com/SaveForWeb/1.0/">
	<!ENTITY ns_custom "http://ns.adobe.com/GenericCustomNamespace/1.0/">
	<!ENTITY ns_adobe_xpath "http://ns.adobe.com/XPath/1.0/">
]>
<svg version="1.1" id="Layer_1" xmlns:x="&ns_extend;" xmlns:i="&ns_ai;" xmlns:graph="&ns_graphs;"
	 xmlns="http://www.w3.org/2000/svg" xmlns:xlink="http://www.w3.org/1999/xlink" x="0px" y="0px" viewBox="0 0 110 110"
	 enable-background="new 0 0 110 110" xml:space="preserve">
<metadata>
	<sfw  xmlns="&ns_sfw;">
		<slices></slices>
		<sliceSourceBounds  width="110" height="110" y="-110" x="0" bottomLeftOrigin="true"></sliceSourceBounds>
		<optimizationSettings>
			<targetSettings  fileFormat="PNG24Format" targetSettingsID="0">
				<PNG24Format  transparency="true" matteColor="#FFFFFF" noMatteColor="false" filtered="false" interlaced="false">
					</PNG24Format>
			</targetSettings>
		</optimizationSettings>
	</sfw>
</metadata>
<g>
	<g>
		<path fill="#2C2129" d="M110,105c0,2.8-2.2,5-5,5H6c-2.8,0-5-2.2-5-5V6c0-2.8,2.2-5,5-5h99c2.8,0,5,2.2,5,5V105z"/>
	</g>
	<g>
		<path fill="#3C2D39" d="M109,104c0,2.8-2.2,5-5,5H5c-2.8,0-5-2.2-5-5V5c0-2.8,2.2-5,5-5h99c2.8,0,5,2.2,5,5V104z"/>
	</g>
</g>
<g>
	<g>
		<path fill="#2C2129" d="M85.9,38.3c-0.5,1.5-0.9,3.1-1.4,4.6c-0.3,0.9-0.8,1.1-1.7,1.1c-3.7-0.1-7.4,0-11.1,0c-0.5,0-1.1,0-1.8,0
			c-0.2,2.1-0.3,4.1-0.5,6.1c0,0.6,0,1.2,0,1.8c-0.1,3.8-0.1,3.8-4,4.9c0.5-9.4,0.4-18.9,4.3-27.9c-4,0-7.8,0-11.6,0
			c-3.2,0-6.4,0.1-9.6,0c-2-0.1-3.4,0.8-4.1,2.5c-1,2.6-2.2,5.3-2.5,8.1c-0.8,6.4-1.1,12.9-1.5,19.3c0,0.1,0.1,0.3,0.1,0.5
			c6.6,0,13.3,0,19.9,0c-4.5,2-4.9,5.9-5,9.9c0,1.5-0.2,3.1-0.1,4.6c0.1,1.5,0.4,2.9,0.7,4.5c-2.6,0-5.2,0-7.8,0
			c-5.1,0-10.2,0-15.3,0c-4.6,0-7-2.2-7.7-6.8c0-0.3-0.2-0.5-0.2-0.7c0-1.3,0-2.5,0-3.8c0.3-1.1,0.5-2.3,0.9-3.4
			c1.1-2.8,3.2-4.2,6.1-4.2c1.5,0,3,0,4.5,0c0.2-4.4,0.4-8.5,0.7-12.6c0.3-4.7,0.9-9.5,2.4-14c1.2-3.6,3-6.6,7-7.6
			c10.8,0,21.6,0,32.4,0c3,0.9,4.8,3,5.7,5.9c0.4,1.3,0.7,2.6,1,3.9C85.9,36,85.9,37.1,85.9,38.3z M52.5,63c-2.3,0-4.5,0-6.6,0
			c-4.5,0-9.1,0-13.6,0.1c-1.9,0-2.7,0.8-3,2.7c-0.2,1.8-0.3,3.7-0.1,5.5c0.3,2.4,1.3,3.2,3.7,3.2c6.1,0,12.1,0,18.2,0
			c0.4,0,0.9,0,1.4-0.1C51.5,70.6,51.5,66.9,52.5,63z M70.4,40.2c3.6,0,7,0,10.4,0c0.3,0,0.8-0.6,0.9-1c0.6-2.4,0.5-4.8-0.5-7.1
			c-1.1-2.6-1.9-3.5-4.7-3.2c-0.5,0-1.1-0.1-1.6,0c-0.5,0.1-1,0.4-1.2,0.7C71.8,32.8,71,36.4,70.4,40.2z"/>
		<path fill="#2C2129" d="M72.6,59.3c-7.3,0-13.3,5.9-13.3,13.3c0,3.9,1.7,7.4,4.4,9.8l5.8-7.6l-4.2,0.4L70.9,64h9.3l-6.6,8h7.6
			L65.7,84.4c2,1.3,4.4,1.7,7,1.7c7.3,0,13.3-6.1,13.3-13.4S80,59.3,72.6,59.3z"/>
	</g>
	<g>
		<path fill="#E5E35C" d="M84.9,37.3c-0.5,1.5-0.9,3.1-1.4,4.6c-0.3,0.9-0.8,1.1-1.7,1.1c-3.7-0.1-7.4,0-11.1,0c-0.5,0-1.1,0-1.8,0
			c-0.2,2.1-0.3,4.1-0.5,6.1c0,0.6,0,1.2,0,1.8c-0.1,3.8-0.1,3.8-4,4.9c0.5-9.4,0.4-18.9,4.3-27.9c-4,0-7.8,0-11.6,0
			c-3.2,0-6.4,0.1-9.6,0c-2-0.1-3.4,0.8-4.1,2.5c-1,2.6-2.2,5.3-2.5,8.1c-0.8,6.4-1.1,12.9-1.5,19.3c0,0.1,0.1,0.3,0.1,0.5
			c6.6,0,13.3,0,19.9,0c-4.5,2-4.9,5.9-5,9.9c0,1.5-0.2,3.1-0.1,4.6c0.1,1.5,0.4,2.9,0.7,4.5c-2.6,0-5.2,0-7.8,0
			c-5.1,0-10.2,0-15.3,0c-4.6,0-7-2.2-7.7-6.8c0-0.3-0.2-0.5-0.2-0.7c0-1.3,0-2.5,0-3.8c0.3-1.1,0.5-2.3,0.9-3.4
			c1.1-2.8,3.2-4.2,6.1-4.2c1.5,0,3,0,4.5,0c0.2-4.4,0.4-8.5,0.7-12.6c0.3-4.7,0.9-9.5,2.4-14c1.2-3.6,3-6.6,7-7.6
			c10.8,0,21.6,0,32.4,0c3,0.9,4.8,3,5.7,5.9c0.4,1.3,0.7,2.6,1,3.9C84.9,35,84.9,36.1,84.9,37.3z M51.5,62c-2.3,0-4.5,0-6.6,0
			c-4.5,0-9.1,0-13.6,0.1c-1.9,0-2.7,0.8-3,2.7c-0.2,1.8-0.3,3.7-0.1,5.5c0.3,2.4,1.3,3.2,3.7,3.2c6.1,0,12.1,0,18.2,0
			c0.4,0,0.9,0,1.4-0.1C50.5,69.6,50.5,65.9,51.5,62z M69.4,39.2c3.6,0,7,0,10.4,0c0.3,0,0.8-0.6,0.9-1c0.6-2.4,0.5-4.8-0.5-7.1
			c-1.1-2.6-1.9-3.5-4.7-3.2c-0.5,0-1.1-0.1-1.6,0c-0.5,0.1-1,0.4-1.2,0.7C70.8,31.8,70,35.4,69.4,39.2z"/>
		<path fill="#E5E35C" d="M71.6,58.3c-7.3,0-13.3,5.9-13.3,13.3c0,3.9,1.7,7.4,4.4,9.8l5.8-7.6l-4.2,0.4L69.9,63h9.3l-6.6,8h7.6
			L64.7,83.4c2,1.3,4.4,1.7,7,1.7c7.3,0,13.3-6.1,13.3-13.4S79,58.3,71.6,58.3z"/>
	</g>
</g>
</svg>
