<?xml version="1.0" encoding="utf-8"?>
<!-- Generator: Adobe Illustrator 18.1.1, SVG Export Plug-In . SVG Version: 6.00 Build 0)  -->
<!DOCTYPE svg PUBLIC "-//W3C//DTD SVG 1.1//EN" "http://www.w3.org/Graphics/SVG/1.1/DTD/svg11.dtd" [
	<!ENTITY ns_extend "http://ns.adobe.com/Extensibility/1.0/">
	<!ENTITY ns_ai "http://ns.adobe.com/AdobeIllustrator/10.0/">
	<!ENTITY ns_graphs "http://ns.adobe.com/Graphs/1.0/">
	<!ENTITY ns_vars "http://ns.adobe.com/Variables/1.0/">
	<!ENTITY ns_imrep "http://ns.adobe.com/ImageReplacement/1.0/">
	<!ENTITY ns_sfw "http://ns.adobe.com/SaveForWeb/1.0/">
	<!ENTITY ns_custom "http://ns.adobe.com/GenericCustomNamespace/1.0/">
	<!ENTITY ns_adobe_xpath "http://ns.adobe.com/XPath/1.0/">
]>
<svg version="1.1" id="Layer_1" xmlns:x="&ns_extend;" xmlns:i="&ns_ai;" xmlns:graph="&ns_graphs;"
	 xmlns="http://www.w3.org/2000/svg" xmlns:xlink="http://www.w3.org/1999/xlink" x="0px" y="0px" viewBox="0 0 110 110"
	 enable-background="new 0 0 110 110" xml:space="preserve">
<metadata>
	<sfw  xmlns="&ns_sfw;">
		<slices></slices>
		<sliceSourceBounds  width="110" height="110" y="-110" x="0" bottomLeftOrigin="true"></sliceSourceBounds>
		<optimizationSettings>
			<targetSettings  fileFormat="PNG24Format" targetSettingsID="0">
				<PNG24Format  transparency="true" matteColor="#FFFFFF" noMatteColor="false" filtered="false" interlaced="false">
					</PNG24Format>
			</targetSettings>
		</optimizationSettings>
	</sfw>
</metadata>
<g>
	<g>
		<path fill="#2C2129" d="M110,105c0,2.8-2.2,5-5,5H6c-2.8,0-5-2.2-5-5V6c0-2.8,2.2-5,5-5h99c2.8,0,5,2.2,5,5V105z"/>
	</g>
	<g>
		<path fill="#3C2D39" d="M109,104c0,2.8-2.2,5-5,5H5c-2.8,0-5-2.2-5-5V5c0-2.8,2.2-5,5-5h99c2.8,0,5,2.2,5,5V104z"/>
	</g>
</g>
<g>
	<path fill="#2C2129" d="M53.9,24.4c0.7,0,1.3,0,2,0c1,0.7,2,1.3,2.9,2.2c8.5,8.5,17,17,25.6,25.5c0.9,0.9,1.6,1.7,2,2.9
		c0,0.5,0,1.1,0,1.6c-0.4,1.2-1.2,2.1-2.1,3C75.8,68,67.3,76.5,58.9,85c-0.9,0.9-1.8,1.7-3,2.1c-0.5,0-1.1,0-1.6,0
		c-1.1-0.3-2-1.1-2.8-1.9c-1.1-1.2-2.3-2.3-3.5-3.5C40.6,74.3,33.2,67,25.8,59.5c-0.8-0.8-1.5-1.9-2.2-2.9c0-0.7,0-1.3,0-2
		c0.5-1.2,1.4-2.1,2.3-3c5.7-5.7,11.4-11.3,17-17c0.2-0.2,0.4-0.4,0.7-0.6c2.3,2.3,4.6,4.6,6.8,6.8c0.2,0.2,0.2,0.6,0.1,0.9
		c-0.5,2.2,0.3,4.3,2.2,5.4c0.4,0.3,0.6,0.5,0.6,1c0,5.3,0,10.5,0,15.8c0,0.5-0.1,0.8-0.6,1.1c-1.9,1.1-2.7,3.2-2.2,5.3
		c0.5,2,2.4,3.4,4.3,3.5c2.3,0.1,4.1-1.2,4.8-3.3c0.6-2-0.1-4.2-1.9-5.4c-0.4-0.3-0.6-0.5-0.6-1c0-5.2,0-10.4,0-15.6
		c0-0.2,0-0.4,0.1-0.7c2,2,3.9,3.9,5.8,5.8c0.4,0.4,0.6,0.8,0.4,1.4c-0.8,3,1.7,6.1,4.8,5.9c2.9-0.2,4.9-2.6,4.6-5.5
		c-0.3-2.7-2.9-4.5-5.7-4c-0.5,0.1-0.7,0-1.1-0.3c-2-2-4-4-6-6c-0.3-0.3-0.4-0.6-0.3-1.1c0.7-3.4-2.2-6.3-5.6-5.7
		c-0.5,0.1-0.8,0-1.1-0.4c-2.1-2.1-4.1-4.1-6.2-6.2c-0.2-0.2-0.3-0.4-0.5-0.6c1.5-1.5,3.1-3,4.6-4.5C51.8,25.7,52.7,24.8,53.9,24.4z
		"/>
	<path fill="#E5E35C" d="M53.9,22.9c0.7,0,1.3,0,2,0c1,0.7,2,1.3,2.9,2.2c8.5,8.5,17,17,25.6,25.5c0.9,0.9,1.6,1.7,2,2.9
		c0,0.5,0,1.1,0,1.6c-0.4,1.2-1.2,2.1-2.1,3c-8.5,8.5-17,16.9-25.4,25.4c-0.9,0.9-1.8,1.7-3,2.1c-0.5,0-1.1,0-1.6,0
		c-1.1-0.3-2-1.1-2.8-1.9c-1.1-1.2-2.3-2.3-3.5-3.5c-7.4-7.4-14.8-14.8-22.2-22.2c-0.8-0.8-1.5-1.9-2.2-2.9c0-0.7,0-1.3,0-2
		c0.5-1.2,1.4-2.1,2.3-3c5.7-5.7,11.4-11.3,17-17c0.2-0.2,0.4-0.4,0.7-0.6c2.3,2.3,4.6,4.6,6.8,6.8c0.2,0.2,0.2,0.6,0.1,0.9
		c-0.5,2.2,0.3,4.3,2.2,5.4c0.4,0.3,0.6,0.5,0.6,1c0,5.3,0,10.5,0,15.8c0,0.5-0.1,0.8-0.6,1.1c-1.9,1.1-2.7,3.2-2.2,5.3
		c0.5,2,2.4,3.4,4.3,3.5c2.3,0.1,4.1-1.2,4.8-3.3c0.6-2-0.1-4.2-1.9-5.4c-0.4-0.3-0.6-0.5-0.6-1c0-5.2,0-10.4,0-15.6
		c0-0.2,0-0.4,0.1-0.7c2,2,3.9,3.9,5.8,5.8c0.4,0.4,0.6,0.8,0.4,1.4c-0.8,3,1.7,6.1,4.8,5.9c2.9-0.2,4.9-2.6,4.6-5.5
		c-0.3-2.7-2.9-4.5-5.7-4c-0.5,0.1-0.7,0-1.1-0.3c-2-2-4-4-6-6c-0.3-0.3-0.4-0.6-0.3-1.1c0.7-3.4-2.2-6.3-5.6-5.7
		c-0.5,0.1-0.8,0-1.1-0.4c-2.1-2.1-4.1-4.1-6.2-6.2c-0.2-0.2-0.3-0.4-0.5-0.6c1.5-1.5,3.1-3,4.6-4.5C51.8,24.3,52.7,23.4,53.9,22.9z
		"/>
</g>
</svg>
