<?xml version="1.0" encoding="utf-8"?>
<!-- Generator: Adobe Illustrator 18.1.1, SVG Export Plug-In . SVG Version: 6.00 Build 0)  -->
<!DOCTYPE svg PUBLIC "-//W3C//DTD SVG 1.1//EN" "http://www.w3.org/Graphics/SVG/1.1/DTD/svg11.dtd" [
	<!ENTITY ns_extend "http://ns.adobe.com/Extensibility/1.0/">
	<!ENTITY ns_ai "http://ns.adobe.com/AdobeIllustrator/10.0/">
	<!ENTITY ns_graphs "http://ns.adobe.com/Graphs/1.0/">
	<!ENTITY ns_vars "http://ns.adobe.com/Variables/1.0/">
	<!ENTITY ns_imrep "http://ns.adobe.com/ImageReplacement/1.0/">
	<!ENTITY ns_sfw "http://ns.adobe.com/SaveForWeb/1.0/">
	<!ENTITY ns_custom "http://ns.adobe.com/GenericCustomNamespace/1.0/">
	<!ENTITY ns_adobe_xpath "http://ns.adobe.com/XPath/1.0/">
]>
<svg version="1.1" id="Layer_1" xmlns:x="&ns_extend;" xmlns:i="&ns_ai;" xmlns:graph="&ns_graphs;"
	 xmlns="http://www.w3.org/2000/svg" xmlns:xlink="http://www.w3.org/1999/xlink" x="0px" y="0px" viewBox="0 0 110 110"
	 enable-background="new 0 0 110 110" xml:space="preserve">
<metadata>
	<sfw  xmlns="&ns_sfw;">
		<slices></slices>
		<sliceSourceBounds  width="110" height="110" y="-110" x="0" bottomLeftOrigin="true"></sliceSourceBounds>
		<optimizationSettings>
			<targetSettings  fileFormat="PNG24Format" targetSettingsID="0">
				<PNG24Format  transparency="true" matteColor="#FFFFFF" noMatteColor="false" filtered="false" interlaced="false">
					</PNG24Format>
			</targetSettings>
		</optimizationSettings>
	</sfw>
</metadata>
<g>
	<path fill="#3C2D39" d="M110,105c0,2.8-2.2,5-5,5H5c-2.8,0-5-2.2-5-5V5c0-2.8,2.2-5,5-5h100c2.8,0,5,2.2,5,5V105z"/>
</g>
<g>
	<g>
		<path fill="#E5E35C" d="M36.5,70.1c0,2.8-1.7,5-3.9,5c-2.1,0-3.9-2.2-3.9-5V39.9c0-2.8,1.7-5,3.9-5c2.1,0,3.9,2.2,3.9,5V70.1z"/>
	</g>
	<g>
		<path fill="#E5E35C" d="M56.2,70.1c0,2.8-2.2,5-5,5h-2.4c-2.8,0-5-2.2-5-5V39.9c0-2.8,2.2-5,5-5h2.4c2.8,0,5,2.2,5,5V70.1z"/>
	</g>
	<g>
		<path fill="#E5E35C" d="M81.3,70.1c0,2.8-2.2,5-5,5h-7.6c-2.8,0-5-2.2-5-5V39.9c0-2.8,2.3-5,5-5h7.6c2.8,0,5,2.2,5,5V70.1z"/>
	</g>
</g>
</svg>
