<?xml version="1.0" encoding="utf-8"?>
<!-- Generator: Adobe Illustrator 18.1.1, SVG Export Plug-In . SVG Version: 6.00 Build 0)  -->
<!DOCTYPE svg PUBLIC "-//W3C//DTD SVG 1.1//EN" "http://www.w3.org/Graphics/SVG/1.1/DTD/svg11.dtd" [
	<!ENTITY ns_extend "http://ns.adobe.com/Extensibility/1.0/">
	<!ENTITY ns_ai "http://ns.adobe.com/AdobeIllustrator/10.0/">
	<!ENTITY ns_graphs "http://ns.adobe.com/Graphs/1.0/">
	<!ENTITY ns_vars "http://ns.adobe.com/Variables/1.0/">
	<!ENTITY ns_imrep "http://ns.adobe.com/ImageReplacement/1.0/">
	<!ENTITY ns_sfw "http://ns.adobe.com/SaveForWeb/1.0/">
	<!ENTITY ns_custom "http://ns.adobe.com/GenericCustomNamespace/1.0/">
	<!ENTITY ns_adobe_xpath "http://ns.adobe.com/XPath/1.0/">
]>
<svg version="1.1" id="Layer_1" xmlns:x="&ns_extend;" xmlns:i="&ns_ai;" xmlns:graph="&ns_graphs;"
	 xmlns="http://www.w3.org/2000/svg" xmlns:xlink="http://www.w3.org/1999/xlink" x="0px" y="0px" viewBox="0 0 1400 290"
	 enable-background="new 0 0 1400 290" xml:space="preserve">
<metadata>
	<sfw  xmlns="&ns_sfw;">
		<slices></slices>
		<sliceSourceBounds  width="1414.3" height="528.1" y="-526.1" x="-10.2" bottomLeftOrigin="true"></sliceSourceBounds>
	</sfw>
</metadata>
<g>
	<defs>
		<rect id="SVGID_1_" y="-2" width="1400" height="350"/>
	</defs>
	<use xlink:href="#SVGID_1_"  overflow="visible" fill="#E5E35C"/>
	<clipPath id="SVGID_2_">
		<use xlink:href="#SVGID_1_"  overflow="visible"/>
	</clipPath>
	<g clip-path="url(#SVGID_2_)">
		<path fill="#289BA8" d="M1207.1,507c0,5.1-4.3,9.3-9.5,9.3h-64.2c-5.2,0-9.5-4.2-9.5-9.3v-28.6c0-5.1,4.3-9.3,9.5-9.3h64.2
			c5.2,0,9.5,4.2,9.5,9.3V507z"/>
		<path fill="#289BA8" d="M1133.4,512.6c-3.1,0-5.7-2.5-5.7-5.6v-28.6c0-3.1,2.6-5.6,5.7-5.6h64.2c3.1,0,5.7,2.5,5.7,5.6V507
			c0,3.1-2.6,5.6-5.7,5.6H1133.4z"/>
	</g>
	<g clip-path="url(#SVGID_2_)">
		<path fill="#289BA8" d="M1404.1,507c0,5.1-4.3,9.3-9.5,9.3h-64.2c-5.2,0-9.5-4.2-9.5-9.3v-28.6c0-5.1,4.3-9.3,9.5-9.3h64.2
			c5.2,0,9.5,4.2,9.5,9.3V507z"/>
		<path fill="#289BA8" d="M1330.4,512.6c-3.1,0-5.7-2.5-5.7-5.6v-28.6c0-3.1,2.6-5.6,5.7-5.6h64.2c3.1,0,5.7,2.5,5.7,5.6V507
			c0,3.1-2.6,5.6-5.7,5.6H1330.4z"/>
	</g>
	<g clip-path="url(#SVGID_2_)">
		<path fill="#289BA8" d="M73.1,507c0,5.1-4.3,9.3-9.5,9.3H-0.7c-5.2,0-9.5-4.2-9.5-9.3v-75.8c0-5.1,4.3-9.3,9.5-9.3h64.3
			c5.2,0,9.5,4.2,9.5,9.3V507z"/>
		<path fill="#289BA8" d="M-0.7,512.6c-3.1,0-5.7-2.5-5.7-5.6v-75.8c0-3.1,2.6-5.6,5.7-5.6h64.3c3.1,0,5.7,2.5,5.7,5.6V507
			c0,3.1-2.6,5.6-5.7,5.6H-0.7z"/>
	</g>
	<g clip-path="url(#SVGID_2_)">
		<path fill="#289BA8" d="M171.6,507c0,5.1-4.3,9.3-9.5,9.3H97.8c-5.2,0-9.5-4.2-9.5-9.3v-75.8c0-5.1,4.3-9.3,9.5-9.3h64.3
			c5.2,0,9.5,4.2,9.5,9.3V507z"/>
		<path fill="#289BA8" d="M97.8,512.6c-3.1,0-5.7-2.5-5.7-5.6v-75.8c0-3.1,2.6-5.6,5.7-5.6h64.3c3.1,0,5.7,2.5,5.7,5.6V507
			c0,3.1-2.6,5.6-5.7,5.6H97.8z"/>
	</g>
	<g clip-path="url(#SVGID_2_)">
		<path fill="#289BA8" d="M272.1,507c0,5.1-4.3,9.3-9.5,9.3h-64.3c-5.2,0-9.5-4.2-9.5-9.3v-75.8c0-5.1,4.3-9.3,9.5-9.3h64.3
			c5.2,0,9.5,4.2,9.5,9.3V507z"/>
		<path fill="#289BA8" d="M198.2,512.6c-3.1,0-5.7-2.5-5.7-5.6v-75.8c0-3.1,2.6-5.6,5.7-5.6h64.3c3.1,0,5.7,2.5,5.7,5.6V507
			c0,3.1-2.6,5.6-5.7,5.6H198.2z"/>
	</g>
	<g clip-path="url(#SVGID_2_)">
		<path fill="#289BA8" d="M1110.2,507c0,5.1-4.3,9.3-9.5,9.3h-72.3c-5.2,0-9.5-4.2-9.5-9.3v-75.8c0-5.1,4.3-9.3,9.5-9.3h72.3
			c5.2,0,9.5,4.2,9.5,9.3V507z"/>
		<path fill="#289BA8" d="M1028.4,512.6c-3.1,0-5.7-2.5-5.7-5.6v-75.8c0-3.1,2.6-5.6,5.7-5.6h72.3c3.1,0,5.7,2.5,5.7,5.6V507
			c0,3.1-2.6,5.6-5.7,5.6H1028.4z"/>
	</g>
	<path clip-path="url(#SVGID_2_)" fill="#289BA8" d="M1305.7,480.6c-0.1-1-0.9-1.7-1.9-1.7h0h-79.3c-1,0-1.9,0.8-1.9,1.8v36.1
		c0,5.1,4.3,9.3,9.5,9.3h64.1c5.2,0,9.5-4.2,9.5-9.3V481c0-0.1,0-0.1,0-0.2C1305.8,480.7,1305.8,480.6,1305.7,480.6z"/>
	<path clip-path="url(#SVGID_2_)" fill="#289BA8" d="M1296.3,421.9h-64.1c-5.2,0-9.5,4.2-9.5,9.3v36.1c0,1,0.8,1.8,1.9,1.8h79.3h0
		c1,0,1.9-0.8,1.9-1.9v-36C1305.7,426.1,1301.5,421.9,1296.3,421.9z"/>
	<path clip-path="url(#SVGID_2_)" fill="#289BA8" d="M1301.9,431.2v35.7h-75.5v-35.7c0-3.1,2.5-5.6,5.7-5.6h64.1
		C1299.4,425.6,1301.9,428.1,1301.9,431.2z"/>
	<g clip-path="url(#SVGID_2_)">
		<path fill="#289BA8" d="M396.7,507c0,5.1-4.3,9.3-9.5,9.3h-90c-5.2,0-9.5-4.2-9.5-9.3v-75.8c0-5.1,4.3-9.3,9.5-9.3h90
			c5.2,0,9.5,4.2,9.5,9.3V507z"/>
		<path fill="#289BA8" d="M297.1,512.6c-3.1,0-5.7-2.5-5.7-5.6v-75.8c0-3.1,2.6-5.6,5.7-5.6h90c3.1,0,5.7,2.5,5.7,5.6V507
			c0,3.1-2.6,5.6-5.7,5.6H297.1z"/>
	</g>
	<g clip-path="url(#SVGID_2_)">
		<path fill="#289BA8" d="M1005.6,507c0,5.1-4.3,9.3-9.5,9.3h-90c-5.2,0-9.5-4.2-9.5-9.3v-75.8c0-5.1,4.3-9.3,9.5-9.3h90
			c5.2,0,9.5,4.2,9.5,9.3V507z"/>
		<path fill="#289BA8" d="M906.1,512.6c-3.1,0-5.7-2.5-5.7-5.6v-75.8c0-3.1,2.6-5.6,5.7-5.6h90c3.1,0,5.7,2.5,5.7,5.6V507
			c0,3.1-2.6,5.6-5.7,5.6H906.1z"/>
	</g>
	<g clip-path="url(#SVGID_2_)">
		<path fill="#289BA8" d="M886,507c0,5.1-4.3,9.3-9.5,9.3H418.4c-5.2,0-9.5-4.2-9.5-9.3v-75.8c0-5.1,4.3-9.3,9.5-9.3h458.2
			c5.2,0,9.5,4.2,9.5,9.3V507z"/>
		<path fill="#289BA8" d="M418.4,512.6c-3.1,0-5.7-2.5-5.7-5.6v-75.8c0-3.1,2.6-5.6,5.7-5.6h458.2c3.1,0,5.7,2.5,5.7,5.6V507
			c0,3.1-2.6,5.6-5.7,5.6H418.4z"/>
	</g>
</g>
<radialGradient id="SVGID_3_" cx="700" cy="174" r="347.121" gradientUnits="userSpaceOnUse">
	<stop  offset="0" style="stop-color:#E0DC07"/>
	<stop  offset="0.301" style="stop-color:#E1DE27"/>
	<stop  offset="0.8434" style="stop-color:#E5E254"/>
	<stop  offset="0.9509" style="stop-color:#E5E35C"/>
</radialGradient>
<path fill="url(#SVGID_3_)" d="M231,119.1V76.7c0-3.5,2.9-4.7,6.3-4.7H280c3.5,0,6,1.3,6,4.7v42.4c0,3.5-2.5,6.9-6,6.9h-42.7
	C233.9,126,231,122.6,231,119.1z M237.3,65h46.4c3.5,0,6.2-3.8,6.2-7.3V34.2c0-3.5-2.8-5.2-6.2-5.2h-46.4c-3.5,0-6.3,1.7-6.3,5.2
	v23.5C231,61.2,233.9,65,237.3,65z M305,65h46.4c3.5,0,5.6-3.8,5.6-7.3V34.2c0-3.5-2.2-5.2-5.6-5.2H305c-3.5,0-7,1.7-7,5.2v23.5
	C298,61.2,301.5,65,305,65z M372.6,65H419c3.5,0,6-3.8,6-7.3V34.2c0-3.5-2.6-5.2-6-5.2h-46.4c-3.5,0-6.6,1.7-6.6,5.2v23.5
	C366,61.2,369.1,65,372.6,65z M440.2,65h46.4c3.5,0,6.4-3.8,6.4-7.3V34.2c0-3.5-2.9-5.2-6.4-5.2h-46.4c-3.5,0-6.2,1.7-6.2,5.2v23.5
	C434,61.2,436.7,65,440.2,65z M507.8,65h46.4c3.5,0,6.8-3.8,6.8-7.3V34.2c0-3.5-3.3-5.2-6.8-5.2h-46.4c-3.5,0-5.8,1.7-5.8,5.2v23.5
	C502,61.2,504.3,65,507.8,65z M575.4,65h46.4c3.5,0,6.2-3.8,6.2-7.3V34.2c0-3.5-2.7-5.2-6.2-5.2h-46.4c-3.5,0-6.4,1.7-6.4,5.2v23.5
	C569,61.2,571.9,65,575.4,65z M643,65h46.4c3.5,0,5.6-3.8,5.6-7.3V34.2c0-3.5-2.1-5.2-5.6-5.2H643c-3.5,0-7,1.7-7,5.2v23.5
	C636,61.2,639.5,65,643,65z M710.6,65H757c3.5,0,7-3.8,7-7.3V34.2c0-3.5-3.5-5.2-7-5.2h-46.4c-3.5,0-5.6,1.7-5.6,5.2v23.5
	C705,61.2,707.1,65,710.6,65z M778.2,65h46.4c3.5,0,6.4-3.8,6.4-7.3V34.2c0-3.5-2.9-5.2-6.4-5.2h-46.4c-3.5,0-6.2,1.7-6.2,5.2v23.5
	C772,61.2,774.7,65,778.2,65z M845.8,65h46.4c3.5,0,5.8-3.8,5.8-7.3V34.2c0-3.5-2.3-5.2-5.8-5.2h-46.4c-3.5,0-6.8,1.7-6.8,5.2v23.5
	C839,61.2,842.3,65,845.8,65z M913.4,65h46.4c3.5,0,6.2-3.8,6.2-7.3V34.2c0-3.5-2.7-5.2-6.2-5.2h-46.4c-3.5,0-6.4,1.7-6.4,5.2v23.5
	C907,61.2,910,65,913.4,65z M981,65h46.4c3.5,0,6.6-3.8,6.6-7.3V34.2c0-3.5-3.1-5.2-6.6-5.2H981c-3.5,0-6,1.7-6,5.2v23.5
	C975,61.2,977.6,65,981,65z M1048.6,65h46.4c3.5,0,7-3.8,7-7.3V34.2c0-3.5-3.5-5.2-7-5.2h-46.4c-3.5,0-5.6,1.7-5.6,5.2v23.5
	C1043,61.2,1045.2,65,1048.6,65z M1162.7,29h-46.4c-3.5,0-6.2,1.7-6.2,5.2v23.5c0,3.5,2.8,7.3,6.2,7.3h46.4c3.5,0,6.3-3.8,6.3-7.3
	V34.2C1169,30.7,1166.1,29,1162.7,29z M302.6,126h42.7c3.5,0,6.7-3.4,6.7-6.9V76.7c0-3.5-3.3-4.7-6.7-4.7h-42.7
	c-3.5,0-5.6,1.3-5.6,4.7v42.4C297,122.6,299.2,126,302.6,126z M367.9,126h42.7c3.5,0,6.4-3.4,6.4-6.9V76.7c0-3.5-3-4.7-6.4-4.7
	h-42.7c-3.5,0-6.9,1.3-6.9,4.7v42.4C361,122.6,364.5,126,367.9,126z M433.2,126h42.7c3.5,0,6.1-3.4,6.1-6.9V76.7
	c0-3.5-2.7-4.7-6.1-4.7h-42.7c-3.5,0-6.2,1.3-6.2,4.7v42.4C427,122.6,429.7,126,433.2,126z M492,119.1c0,3.5,3,6.9,6.5,6.9h42.7
	c3.5,0,5.9-3.4,5.9-6.9V76.7c0-3.5-2.4-4.7-5.9-4.7h-42.7c-3.5,0-6.5,1.3-6.5,4.7V119.1z M558,76.7v42.4c0,3.5,2.3,6.9,5.8,6.9h42.7
	c3.5,0,6.6-3.4,6.6-6.9V76.7c0-3.5-3.1-4.7-6.6-4.7h-42.7C560.3,72,558,73.3,558,76.7z M622,76.7v42.4c0,3.5,3.6,6.9,7.1,6.9h42.7
	c3.5,0,6.3-3.4,6.3-6.9V76.7c0-3.5-2.8-4.7-6.3-4.7h-42.7C625.6,72,622,73.3,622,76.7z M737,126c3.5,0,6-3.4,6-6.9V76.7
	c0-3.5-2.5-4.7-6-4.7h-42.7c-3.5,0-6.3,1.3-6.3,4.7v42.4c0,3.5,2.9,6.9,6.3,6.9H737z M802.3,126c3.5,0,6.7-3.4,6.7-6.9V76.7
	c0-3.5-3.3-4.7-6.7-4.7h-42.7c-3.5,0-6.6,1.3-6.6,4.7v42.4c0,3.5,3.2,6.9,6.6,6.9H802.3z M867.6,126c3.5,0,6.4-3.4,6.4-6.9V76.7
	c0-3.5-3-4.7-6.4-4.7h-42.7c-3.5,0-5.9,1.3-5.9,4.7v42.4c0,3.5,2.5,6.9,5.9,6.9H867.6z M932.9,126c3.5,0,6.1-3.4,6.1-6.9V76.7
	c0-3.5-2.7-4.7-6.1-4.7h-42.7c-3.5,0-7.2,1.3-7.2,4.7v42.4c0,3.5,3.7,6.9,7.2,6.9H932.9z M998.1,126c3.5,0,5.9-3.4,5.9-6.9V76.7
	c0-3.5-2.4-4.7-5.9-4.7h-42.7c-3.5,0-6.5,1.3-6.5,4.7v42.4c0,3.5,3,6.9,6.5,6.9H998.1z M1063.4,72h-42.7c-3.5,0-6.8,1.3-6.8,4.7
	v42.4c0,3.5,3.3,6.9,6.8,6.9h42.7c3.5,0,6.6-3.4,6.6-6.9V76.7C1070,73.3,1066.9,72,1063.4,72z M385,183.2v-42.4
	c0-3.5-3.7-4.8-7.1-4.8h-42.7c-3.5,0-6.2,1.3-6.2,4.8v42.4c0,3.5,2.8,7.8,6.2,7.8h42.7C381.3,191,385,186.6,385,183.2z M443.2,191
	c3.5,0,5.8-4.4,5.8-7.8v-42.4c0-3.5-2.4-4.8-5.8-4.8h-42.7c-3.5,0-6.5,1.3-6.5,4.8v42.4c0,3.5,3,7.8,6.5,7.8H443.2z M508.4,191
	c3.5,0,6.6-4.4,6.6-7.8v-42.4c0-3.5-3.1-4.8-6.6-4.8h-42.7c-3.5,0-6.8,1.3-6.8,4.8v42.4c0,3.5,3.3,7.8,6.8,7.8H508.4z M573.7,191
	c3.5,0,6.3-4.4,6.3-7.8v-42.4c0-3.5-2.8-4.8-6.3-4.8h-42.7c-3.5,0-6.1,1.3-6.1,4.8v42.4c0,3.5,2.6,7.8,6.1,7.8H573.7z M639,191
	c3.5,0,7-4.4,7-7.8v-42.4c0-3.5-3.5-4.8-7-4.8h-42.7c-3.5,0-6.4,1.3-6.4,4.8v42.4c0,3.5,2.9,7.8,6.4,7.8H639z M704.3,191
	c3.5,0,5.7-4.4,5.7-7.8v-42.4c0-3.5-2.2-4.8-5.7-4.8h-42.7c-3.5,0-6.6,1.3-6.6,4.8v42.4c0,3.5,3.2,7.8,6.6,7.8H704.3z M769.6,191
	c3.5,0,6.4-4.4,6.4-7.8v-42.4c0-3.5-3-4.8-6.4-4.8h-42.7c-3.5,0-5.9,1.3-5.9,4.8v42.4c0,3.5,2.5,7.8,5.9,7.8H769.6z M834.9,191
	c3.5,0,6.1-4.4,6.1-7.8v-42.4c0-3.5-2.7-4.8-6.1-4.8h-42.7c-3.5,0-6.2,1.3-6.2,4.8v42.4c0,3.5,2.8,7.8,6.2,7.8H834.9z M900.2,191
	c3.5,0,6.8-4.4,6.8-7.8v-42.4c0-3.5-3.4-4.8-6.8-4.8h-42.7c-3.5,0-5.5,1.3-5.5,4.8v42.4c0,3.5,2,7.8,5.5,7.8H900.2z M965.4,191
	c3.5,0,5.6-4.4,5.6-7.8v-42.4c0-3.5-2.1-4.8-5.6-4.8h-42.7c-3.5,0-6.8,1.3-6.8,4.8v42.4c0,3.5,3.3,7.8,6.8,7.8H965.4z M1030.7,191
	c3.5,0,6.3-4.4,6.3-7.8v-42.4c0-3.5-2.8-4.8-6.3-4.8h-42.7c-3.5,0-6.1,1.3-6.1,4.8v42.4c0,3.5,2.6,7.8,6.1,7.8H1030.7z M1096,136
	h-42.7c-3.5,0-6.4,1.3-6.4,4.8v42.4c0,3.5,2.9,7.8,6.4,7.8h42.7c3.5,0,6-4.4,6-7.8v-42.4C1102,137.3,1099.5,136,1096,136z
	 M1162.7,72h-76.6c-3.5,0-6.1,1.3-6.1,4.7v42.4c0,3.5,2.6,6.9,6.1,6.9h76.6c3.5,0,6.3-3.4,6.3-6.9V76.7
	C1169,73.3,1166.1,72,1162.7,72z M237.3,192h76.6c3.5,0,6.1-4.1,6.1-7.6v-42.4c0-3.5-2.6-5.1-6.1-5.1h-76.6c-3.5,0-6.3,1.6-6.3,5.1
	v42.4C231,187.9,233.9,192,237.3,192z M362,263h-42.7c-3.5,0-6.3,1.9-6.3,5.3v42.4c0,3.5,2.9,7.3,6.3,7.3H362c3.5,0,7-3.8,7-7.3
	v-42.4C369,264.9,365.5,263,362,263z M427.3,263h-42.7c-3.5,0-6.6,1.9-6.6,5.3v42.4c0,3.5,3.2,7.3,6.6,7.3h42.7
	c3.5,0,5.7-3.8,5.7-7.3v-42.4C433,264.9,430.7,263,427.3,263z M492.6,263h-42.7c-3.5,0-5.9,1.9-5.9,5.3v42.4c0,3.5,2.5,7.3,5.9,7.3
	h42.7c3.5,0,6.4-3.8,6.4-7.3v-42.4C499,264.9,496,263,492.6,263z M557.9,263h-42.7c-3.5,0-6.2,1.9-6.2,5.3v42.4
	c0,3.5,2.7,7.3,6.2,7.3h42.7c3.5,0,6.1-3.8,6.1-7.3v-42.4C564,264.9,561.3,263,557.9,263z M623.1,263h-42.7c-3.5,0-5.5,1.9-5.5,5.3
	v42.4c0,3.5,2,7.3,5.5,7.3h42.7c3.5,0,6.9-3.8,6.9-7.3v-42.4C630,264.9,626.6,263,623.1,263z M688.4,263h-42.7
	c-3.5,0-6.8,1.9-6.8,5.3v42.4c0,3.5,3.3,7.3,6.8,7.3h42.7c3.5,0,5.6-3.8,5.6-7.3v-42.4C694,264.9,691.9,263,688.4,263z M753.7,263
	h-42.7c-3.5,0-6.1,1.9-6.1,5.3v42.4c0,3.5,2.6,7.3,6.1,7.3h42.7c3.5,0,6.3-3.8,6.3-7.3v-42.4C760,264.9,757.2,263,753.7,263z
	 M819,263h-42.7c-3.5,0-6.3,1.9-6.3,5.3v42.4c0,3.5,2.9,7.3,6.3,7.3H819c3.5,0,6-3.8,6-7.3v-42.4C825,264.9,822.5,263,819,263z
	 M884.3,263h-42.7c-3.5,0-5.6,1.9-5.6,5.3v42.4c0,3.5,2.2,7.3,5.6,7.3h42.7c3.5,0,6.7-3.8,6.7-7.3v-42.4
	C891,264.9,887.7,263,884.3,263z M949.6,263h-42.7c-3.5,0-6.9,1.9-6.9,5.3v42.4c0,3.5,3.5,7.3,6.9,7.3h42.7c3.5,0,6.4-3.8,6.4-7.3
	v-42.4C956,264.9,953,263,949.6,263z M1014.9,263h-42.7c-3.5,0-6.2,1.9-6.2,5.3v42.4c0,3.5,2.7,7.3,6.2,7.3h42.7
	c3.5,0,6.1-3.8,6.1-7.3v-42.4C1021,264.9,1018.3,263,1014.9,263z M296.3,265h-59c-3.5,0-6.3,1.1-6.3,4.6V312c0,3.5,2.9,7,6.3,7h59
	c3.5,0,5.7-3.6,5.7-7v-42.4C302,266.1,299.8,265,296.3,265z M350.5,254h42.7c3.5,0,6.9-3.8,6.9-7.2v-42.4c0-3.5-3.4-5.4-6.9-5.4
	h-42.7c-3.5,0-6.5,2-6.5,5.4v42.4C344,250.2,347,254,350.5,254z M415.8,254h42.7c3.5,0,6.6-3.8,6.6-7.2v-42.4c0-3.5-3.1-5.4-6.6-5.4
	h-42.7c-3.5,0-5.8,2-5.8,5.4v42.4C410,250.2,412.3,254,415.8,254z M481.1,254h42.7c3.5,0,6.3-3.8,6.3-7.2v-42.4
	c0-3.5-2.8-5.4-6.3-5.4h-42.7c-3.5,0-7.1,2-7.1,5.4v42.4C474,250.2,477.6,254,481.1,254z M546.3,254H589c3.5,0,6-3.8,6-7.2v-42.4
	c0-3.5-2.5-5.4-6-5.4h-42.7c-3.5,0-6.3,2-6.3,5.4v42.4C540,250.2,542.9,254,546.3,254z M611.6,254h42.7c3.5,0,6.7-3.8,6.7-7.2v-42.4
	c0-3.5-3.3-5.4-6.7-5.4h-42.7c-3.5,0-6.6,2-6.6,5.4v42.4C605,250.2,608.2,254,611.6,254z M676.9,254h42.7c3.5,0,6.4-3.8,6.4-7.2
	v-42.4c0-3.5-3-5.4-6.4-5.4h-42.7c-3.5,0-5.9,2-5.9,5.4v42.4C671,250.2,673.4,254,676.9,254z M742.2,254h42.7c3.5,0,6.2-3.8,6.2-7.2
	v-42.4c0-3.5-2.7-5.4-6.2-5.4h-42.7c-3.5,0-6.2,2-6.2,5.4v42.4C736,250.2,738.7,254,742.2,254z M807.5,254h42.7
	c3.5,0,5.9-3.8,5.9-7.2v-42.4c0-3.5-2.4-5.4-5.9-5.4h-42.7c-3.5,0-6.5,2-6.5,5.4v42.4C801,250.2,804,254,807.5,254z M872.8,254h42.7
	c3.5,0,6.6-3.8,6.6-7.2v-42.4c0-3.5-3.1-5.4-6.6-5.4h-42.7c-3.5,0-5.8,2-5.8,5.4v42.4C867,250.2,869.3,254,872.8,254z M938,254h42.7
	c3.5,0,6.3-3.8,6.3-7.2v-42.4c0-3.5-2.8-5.4-6.3-5.4H938c-3.5,0-6,2-6,5.4v42.4C932,250.2,934.6,254,938,254z M1003.3,254h42.7
	c3.5,0,6-3.8,6-7.2v-42.4c0-3.5-2.6-5.4-6-5.4h-42.7c-3.5,0-6.3,2-6.3,5.4v42.4C997,250.2,999.9,254,1003.3,254z M1062,204.4v42.4
	c0,3.5,3.2,7.2,6.6,7.2h42.7c3.5,0,5.7-3.8,5.7-7.2v-42.4c0-3.5-2.3-5.4-5.7-5.4h-42.7C1065.2,199,1062,201,1062,204.4z M1162.5,136
	h-27.3h-15.3c-3.5,0-5.8,1.3-5.8,4.8v42.4c0,3.5,2.4,7.8,5.8,7.8h9.2v55.8c0,3.5,2.7,7.2,6.1,7.2h27.3c3.5,0,6.5-3.8,6.5-7.2v-63.6
	v-42.4C1169,137.3,1165.9,136,1162.5,136z M237.3,255h91.6c3.5,0,6.1-3.5,6.1-7v-42.4c0-3.5-2.6-5.7-6.1-5.7h-91.6
	c-3.5,0-6.3,2.2-6.3,5.7V248C231,251.5,233.9,255,237.3,255z M1162.5,263h-124.3c-3.5,0-6.1,1.9-6.1,5.3v42.4c0,3.5,2.7,7.3,6.1,7.3
	h124.3c3.5,0,6.5-3.8,6.5-7.3v-42.4C1169,264.9,1165.9,263,1162.5,263z"/>
</svg>
