<?xml version="1.0" encoding="utf-8"?>
<!-- Generator: Adobe Illustrator 18.0.0, SVG Export Plug-In . SVG Version: 6.00 Build 0)  -->
<!DOCTYPE svg PUBLIC "-//W3C//DTD SVG 1.1//EN" "http://www.w3.org/Graphics/SVG/1.1/DTD/svg11.dtd" [
	<!ENTITY ns_extend "http://ns.adobe.com/Extensibility/1.0/">
	<!ENTITY ns_ai "http://ns.adobe.com/AdobeIllustrator/10.0/">
	<!ENTITY ns_graphs "http://ns.adobe.com/Graphs/1.0/">
	<!ENTITY ns_vars "http://ns.adobe.com/Variables/1.0/">
	<!ENTITY ns_imrep "http://ns.adobe.com/ImageReplacement/1.0/">
	<!ENTITY ns_sfw "http://ns.adobe.com/SaveForWeb/1.0/">
	<!ENTITY ns_custom "http://ns.adobe.com/GenericCustomNamespace/1.0/">
	<!ENTITY ns_adobe_xpath "http://ns.adobe.com/XPath/1.0/">
]>
<svg version="1.1" id="Layer_1" xmlns:x="&ns_extend;" xmlns:i="&ns_ai;" xmlns:graph="&ns_graphs;"
	 xmlns="http://www.w3.org/2000/svg" xmlns:xlink="http://www.w3.org/1999/xlink" x="0px" y="0px" viewBox="0 0 1400 500"
	 enable-background="new 0 0 1400 500" xml:space="preserve">
<metadata>
	<sfw  xmlns="&ns_sfw;">
		<slices></slices>
		<sliceSourceBounds  width="1400" height="500" y="-500" x="0" bottomLeftOrigin="true"></sliceSourceBounds>
	</sfw>
</metadata>
<rect fill="#E5E35C" width="1400" height="500"/>
<g>
	
		<radialGradient id="SVGID_1_" cx="811.2618" cy="352.8525" r="558.9014" gradientTransform="matrix(1.0615 0 0 0.8889 -159.2748 0.2222)" gradientUnits="userSpaceOnUse">
		<stop  offset="0" style="stop-color:#E0DC07"/>
		<stop  offset="0.9509" style="stop-color:#E5E35C"/>
	</radialGradient>
	<rect x="904" y="391" fill="url(#SVGID_1_)" width="50" height="68"/>
	
		<radialGradient id="SVGID_2_" cx="812.3385" cy="350.502" r="556.8624" gradientTransform="matrix(1.0615 0 0 0.8889 -159.2748 0.2222)" gradientUnits="userSpaceOnUse">
		<stop  offset="0" style="stop-color:#E0DC07"/>
		<stop  offset="0.9509" style="stop-color:#E5E35C"/>
	</radialGradient>
	<polygon fill="url(#SVGID_2_)" points="495,394 495,340 609,340 609,146 673,146 673,240 910,240 910,295 794,295 794,389 677,389 
		677,428 839,428 839,338 1018,338 1018,435 1183,435 1183,392 1065,392 1065,296 957,296 957,242 1178,242 1178,107 1132,107 
		1132,197 721,197 721,107 560,107 560,298 380,298 380,197 338,197 338,389 223,389 223,459 274,459 274,431 385,431 385,336 
		449,336 449,459 499,459 499,434 562,434 562,459 610,459 610,394 	"/>
	
		<radialGradient id="SVGID_3_" cx="812.0244" cy="353.631" r="555.6848" gradientTransform="matrix(1.0615 0 0 0.8889 -159.2748 0.2222)" gradientUnits="userSpaceOnUse">
		<stop  offset="0" style="stop-color:#E0DC07"/>
		<stop  offset="0.9509" style="stop-color:#E5E35C"/>
	</radialGradient>
	<polygon fill="url(#SVGID_3_)" points="182,199 182,237 226,237 226,339 274,339 274,143 452,143 452,240 500,240 500,107 228,107 
		228,199 	"/>
	
		<radialGradient id="SVGID_4_" cx="813.2842" cy="354.4903" r="553.2706" gradientTransform="matrix(1.0615 0 0 0.8889 -159.2748 0.2222)" gradientUnits="userSpaceOnUse">
		<stop  offset="0" style="stop-color:#E0DC07"/>
		<stop  offset="0.9509" style="stop-color:#E5E35C"/>
	</radialGradient>
	<rect x="1130" y="297" fill="url(#SVGID_4_)" width="88" height="41"/>
	
		<radialGradient id="SVGID_5_" cx="812.5438" cy="408.2701" r="595.1487" gradientTransform="matrix(1.0615 0 0 0.8889 -159.2748 0.2222)" gradientUnits="userSpaceOnUse">
		<stop  offset="0" style="stop-color:#E0DC07"/>
		<stop  offset="0.9509" style="stop-color:#E5E35C"/>
	</radialGradient>
	<rect x="792" y="107" fill="url(#SVGID_5_)" width="277" height="39"/>
</g>
</svg>
