<?xml version="1.0" encoding="utf-8"?>
<!-- Generator: Adobe Illustrator 18.1.1, SVG Export Plug-In . SVG Version: 6.00 Build 0)  -->
<!DOCTYPE svg PUBLIC "-//W3C//DTD SVG 1.1//EN" "http://www.w3.org/Graphics/SVG/1.1/DTD/svg11.dtd" [
	<!ENTITY ns_extend "http://ns.adobe.com/Extensibility/1.0/">
	<!ENTITY ns_ai "http://ns.adobe.com/AdobeIllustrator/10.0/">
	<!ENTITY ns_graphs "http://ns.adobe.com/Graphs/1.0/">
	<!ENTITY ns_vars "http://ns.adobe.com/Variables/1.0/">
	<!ENTITY ns_imrep "http://ns.adobe.com/ImageReplacement/1.0/">
	<!ENTITY ns_sfw "http://ns.adobe.com/SaveForWeb/1.0/">
	<!ENTITY ns_custom "http://ns.adobe.com/GenericCustomNamespace/1.0/">
	<!ENTITY ns_adobe_xpath "http://ns.adobe.com/XPath/1.0/">
]>
<svg version="1.1" id="Layer_1" xmlns:x="&ns_extend;" xmlns:i="&ns_ai;" xmlns:graph="&ns_graphs;"
	 xmlns="http://www.w3.org/2000/svg" xmlns:xlink="http://www.w3.org/1999/xlink" x="0px" y="0px" viewBox="0 0 599 321"
	 enable-background="new 0 0 599 321" xml:space="preserve">
<metadata>
	<sfw  xmlns="&ns_sfw;">
		<slices></slices>
		<sliceSourceBounds  width="598.2" height="320.3" y="-320.3" x="0" bottomLeftOrigin="true"></sliceSourceBounds>
	</sfw>
</metadata>
<g>
	<g>
		<path fill="#E0DC07" d="M261.4,180.1v39.7l-81,30.2c-18.8,6.8-31.3,25-31.3,45.1v25.1h299.5v-25.1c0-20.1-13.1-38.4-31.9-45.1
			l-80.4-30.2V177"/>
		<path fill="#E0DC07" d="M375.2,95c0,52.5-35.2,95-78.7,95c-43.4,0-78.7-42.5-78.7-95c0-52.5,35.2-95,78.7-95
			C340,0,375.2,42.6,375.2,95z"/>
	</g>
	<g>
		<path fill="#E0DC07" d="M490.3,239.5v22.9l-46.7,17.4c-10.8,3.9-18,14.4-18,26v14.5h172.6v-14.5c0-11.6-7.5-22.1-18.4-26
			l-46.3-17.4v-24.7"/>
		<ellipse fill="#E0DC07" cx="510.6" cy="190.5" rx="45.3" ry="54.8"/>
	</g>
	<g>
		<path fill="#E0DC07" d="M61.3,243.8v21.7L17.1,282C6.8,285.7,0,295.7,0,306.6v13.7h163.5v-13.7c0-11-7.1-20.9-17.4-24.6
			l-43.9-16.5v-23.4"/>
		<ellipse fill="#E0DC07" cx="80.5" cy="197.4" rx="42.9" ry="51.9"/>
	</g>
</g>
</svg>
