<?xml version="1.0" encoding="utf-8"?>
<!-- Generator: Adobe Illustrator 18.1.1, SVG Export Plug-In . SVG Version: 6.00 Build 0)  -->
<!DOCTYPE svg PUBLIC "-//W3C//DTD SVG 1.1//EN" "http://www.w3.org/Graphics/SVG/1.1/DTD/svg11.dtd" [
	<!ENTITY ns_extend "http://ns.adobe.com/Extensibility/1.0/">
	<!ENTITY ns_ai "http://ns.adobe.com/AdobeIllustrator/10.0/">
	<!ENTITY ns_graphs "http://ns.adobe.com/Graphs/1.0/">
	<!ENTITY ns_vars "http://ns.adobe.com/Variables/1.0/">
	<!ENTITY ns_imrep "http://ns.adobe.com/ImageReplacement/1.0/">
	<!ENTITY ns_sfw "http://ns.adobe.com/SaveForWeb/1.0/">
	<!ENTITY ns_custom "http://ns.adobe.com/GenericCustomNamespace/1.0/">
	<!ENTITY ns_adobe_xpath "http://ns.adobe.com/XPath/1.0/">
]>
<svg version="1.1" id="Layer_1" xmlns:x="&ns_extend;" xmlns:i="&ns_ai;" xmlns:graph="&ns_graphs;"
	 xmlns="http://www.w3.org/2000/svg" xmlns:xlink="http://www.w3.org/1999/xlink" x="0px" y="0px" viewBox="0 0 36 28"
	 enable-background="new 0 0 36 28" xml:space="preserve">
<metadata>
	<sfw  xmlns="&ns_sfw;">
		<slices></slices>
		<sliceSourceBounds  width="36" height="27.9" bottomLeftOrigin="true" y="-27.9" x="0"></sliceSourceBounds>
	</sfw>
</metadata>
<g>
	<path fill="#3C2D39" d="M6.3,27.9L1,23.6c3.1-1.6,6.7-5.7,7.5-9.2c-0.3,0.2-1.1,0.3-1.8,0.3c-3.7,0-6.6-2.8-6.6-7S3.5,0,7.7,0
		c4.6,0,8.6,3.6,8.6,9.9C16.3,17.2,12.3,23.7,6.3,27.9z M26,27.9l-5.3-4.4c3.1-1.6,6.8-5.7,7.6-9.2c-0.3,0.2-1.2,0.3-1.9,0.3
		c-3.7,0-6.5-2.8-6.5-7S23.2,0,27.4,0C31.9,0,36,3.6,36,9.9C36,17.2,32,23.7,26,27.9z"/>
</g>
</svg>
